182601 527024 470
78717 921366 525
614138 805809 509
560030 644740 509
629119 693800 442
528594 554000 452
100393 666972 509
773845 726733 468
401838 739670 509
452563 786429 509
97558 956284 525
360376 649668 509
892540 281310 525
890535 977826 507
633893 814168 504
124669 31125 354
677266 255502 509
284703 772330 509
823855 260872 509
884434 658826 525
956972 659629 525
262976 357805 441
402601 831737 509
238746 304959 407
294313 695176 509
227347 408833 443
887208 157566 525
212544 459006 449
354114 920189 525
483136 471070 413
10820 82085 351
332925 2424 443
816168 648426 504
406977 529636 470
211406 977220 525
495103 682993 509
663527 998581 525
570011 470318 470
14289 285456 443
595215 777634 509
210141 992004 525
618809 269526 470
123943 31128 354
60039 341366 443
520519 259072 470
596931 898207 525
570806 771648 509
197324 482974 449
193192 484011 449
667614 395206 509
250152 657220 509
432100 628947 509
120284 96269 354
675969 969454 525
732980 125783 509
604866 359854 470
710518 239365 509
663015 201729 509
803690 672958 504
125381 148489 375
334056 235495 407
715762 697649 504
223321 775748 509
580804 807114 509
670988 533090 509
34873 389212 443
884760 358144 525
569403 298209 470
27051 177176 383
8572 341275 443
644175 758193 504
859529 384676 525
919142 117799 525
330828 341476 366
343406 284811 389
384732 930403 525
937410 377011 525
367057 103154 443
375871 883036 525
421976 346529 449
817942 415096 509
489881 931321 525
925720 82904 525
978527 220240 525
920205 618158 525
363544 126333 443
922699 457763 525
150028 839195 525
313744 891378 525
980288 343207 525
908849 951472 507
44249 104783 351
440339 308250 449
16811 727530 509
486507 301738 449
746358 499162 509
90849 466474 449
710544 943097 525
72196 96685 351
171275 596446 470
669778 148464 509
763267 455396 509
451881 227401 449
227702 261366 443
655088 104595 509
11223 285352 443
494315 546908 470
429871 308960 449
110460 119765 349
872158 555297 525
43135 119325 354
421471 692544 509
452580 998297 525
140267 691762 509
209935 609087 470
235001 284645 407
848443 236064 525
212291 133264 383
353474 609741 470
37559 784615 509
61364 705184 509
547846 538088 452
998921 24510 525
360576 564038 470
816083 544460 509
556151 748051 509
64799 989872 525
640468 709366 504
809219 633176 504
164385 946893 525
884659 111361 525
637219 538191 509
617531 426055 470
18246 392640 443
909495 39047 525
193904 770504 509
158902 531090 470
514943 518265 395
163087 851725 525
891619 263435 525
215268 986627 525
703137 37186 509
481338 889494 525
345931 107133 443
841898 450490 525
707939 163081 509
977250 145066 525
892797 869105 445
344634 461197 449
449535 228486 449
781283 805467 468
134191 652702 509
956311 809952 525
483769 680752 509
53700 377528 443
757246 639043 504
351465 977178 525
691132 741273 504
38657 740509 509
454808 510790 444
520280 898259 525
908896 679901 525
765317 327835 509
936267 129033 525
831131 939836 525
20076 580000 470
168633 430230 449
815959 655075 504
105282 261100 443
360165 770842 509
252743 332368 407
880996 909259 445
521981 330343 470
505408 588295 470
131524 667393 509
327661 974335 525
119009 723536 509
345096 514654 470
630158 440925 509
176336 229349 386
128553 72890 354
799712 287890 509
467615 918761 525
989406 841421 507
340385 819201 509
136857 157519 383
514820 997336 525
844409 526608 525
532953 959514 525
983080 266051 525
682994 968015 525
420191 532854 470
356730 409520 436
705437 97011 509
254158 12124 443
48627 254766 443
890253 511670 525
116704 211655 383
609462 749528 509
826060 171517 509
95880 315964 443
165849 27121 383
496975 823267 509
943538 742116 525
114240 712982 509
135880 320415 443
510921 857573 525
488754 88534 449
205863 469558 449
526004 279440 470
862817 863773 313
876321 793356 525
706941 142771 509
71675 895505 525
118905 404925 443
236449 825850 509
814987 348499 509
336687 177320 443
998633 423002 525
752074 157701 509
892822 660043 525
992039 897977 507
260305 678015 509
698407 37434 509
731391 534689 509
465289 45182 449
118679 156418 383
680450 940964 525
337023 189163 443
935520 116916 525
91430 825161 509
697435 945429 525
698237 7675 509
545643 464172 470
613492 9964 470
809988 75585 509
137475 383785 443
380656 358857 423
507310 859731 525
310236 128677 443
461473 919585 525
656088 249408 509
87384 974925 525
606827 39408 470
45620 125563 354
569784 772330 509
192832 295038 443
26440 910258 525
701247 96727 509
220115 29835 386
