693694 566371 509
193746 110312 383
425364 4594 449
584996 769207 509
576381 970661 525
514292 244590 470
821550 613929 509
840701 394650 525
72082 627446 509
691399 476239 509
911361 368805 525
203622 460160 449
650030 760606 504
825359 712734 468
110057 947795 525
295485 384492 441
943050 322854 525
430311 31125 449
206538 108345 383
365081 44849 443
12588 716688 509
592125 18273 470
932234 316645 525
973238 158129 525
87080 16376 351
349973 544185 470
598146 568783 434
662982 929157 525
175359 426516 449
740434 105066 509
713836 321919 509
464715 458487 444
457448 670778 509
563519 488575 470
590127 254159 470
780189 664615 504
171876 969033 525
1178 22056 279
263997 604373 470
787067 577345 509
334302 293049 384
170645 813273 509
437901 459928 400
340230 225369 443
269292 102030 443
402516 412235 449
617674 453211 470
650942 883606 525
562931 870782 525
481805 964685 525
124326 956199 525
514869 325952 470
841227 89710 525
347451 718411 509
741775 836333 468
541952 906885 525
790860 889192 525
915326 183243 525
967174 561276 525
252304 987978 525
633832 661233 429
917752 640871 525
492775 735708 509
639901 339060 509
153423 307023 443
727222 757566 424
975656 495291 525
869712 209136 525
916555 27768 525
405101 712250 509
266725 317516 407
913307 788900 525
588392 829496 509
663258 801190 504
66362 474522 449
678859 945797 525
879230 847425 432
323410 726450 509
724617 459124 509
697140 709166 504
910302 195054 525
410609 236485 449
66674 735041 509
684729 847922 525
107409 874914 525
368107 14880 443
927988 748559 525
178711 116216 383
963588 303721 525
558672 822301 509
265189 806347 509
127355 196119 383
384376 507796 449
148492 709205 509
660048 892702 525
358772 712432 509
97740 612755 470
942013 997842 458
888759 74465 525
552104 23040 470
667063 591143 509
172954 114824 383
748295 943628 525
967547 525799 525
686432 371770 509
572234 82995 470
617998 126873 470
789229 226427 509
27746 647567 509
263343 945723 525
995174 652266 525
827971 202044 509
245117 69800 443
466280 253139 449
770399 821547 468
638663 397305 509
754737 689633 504
478756 566720 470
426672 120487 449
327155 992218 525
656712 410792 509
732378 532880 509
956188 188436 525
332265 207016 443
951008 701541 525
433618 299566 449
440822 855591 525
744763 468283 509
813022 395538 509
839971 9662 525
961717 76884 525
851520 189319 525
837563 641622 504
191546 801147 509
917329 865833 476
730488 21338 509
529141 222821 470
971101 263858 525
661444 543739 509
571806 673448 509
359772 344202 441
235857 899509 525
550889 690749 509
54743 842294 525
983798 737327 525
370969 324688 441
638359 903038 525
693915 699775 367
295659 253340 407
738495 586677 509
943516 584589 525
96178 822812 509
45590 191093 383
491465 966076 525
931425 63948 525
113272 751654 509
523108 610256 452
385431 89619 443
431428 519038 470
921481 914225 432
957020 563211 525
761915 336775 509
558479 921084 525
888050 921981 476
235194 552304 470
696975 409807 509
698776 611299 509
55936 894578 525
967329 161916 525
77958 763025 509
758198 399891 509
266642 829408 509
25067 844177 525
2480 783923 509
901352 3029 525
426024 186032 449
884379 436565 525
608785 972449 525
837367 312410 509
288778 835300 509
207891 635548 509
462717 854346 525
453245 782689 509
944057 322861 525
980385 367962 525
239203 337225 407
688165 937825 525
569966 218619 470
85458 642774 509
712245 307759 509
842137 178782 525
859443 858918 313
887361 779533 525
466165 746564 509
526132 839882 525
65886 987473 525
985433 22300 525
691927 701202 367
527519 847683 525
657587 871530 525
482950 575522 470
452166 481283 444
657534 232294 509
852085 424202 525
329396 87258 443
313933 851128 525
407637 986468 525
516625 586399 452
933854 953097 507
499586 225784 449
846154 442986 525
246636 799600 509
689258 144730 509
407797 509889 449
250090 888577 525
140588 483762 449
320968 870393 525
198731 402203 443
176654 425234 449
879805 757570 525
848100 432715 525
488040 854035 525
487060 936648 525
634032 376950 509
160873 221963 386
99191 731316 509
373132 730054 509
444499 790813 509
683628 530541 509
637789 621383 509
148981 234327 443
248888 263813 407
324413 754738 509
732623 843743 525
100125 164233 383
965076 476860 525
989740 438916 525
56561 999011 525
218182 205583 386
860351 188415 525
670296 565708 509
42188 951502 525
638693 576918 509
333850 585904 470
443708 518523 470
414376 502846 444
694172 539596 509
625888 638538 509
981314 180878 525
200100 53685 383
